%YAML 1.1
%TAG !u! tag:unity3d.com,2011:
--- !u!1001 &9044372217708282566
PrefabInstance:
  m_ObjectHideFlags: 0
  serializedVersion: 2
  m_Modification:
    m_TransformParent: {fileID: 0}
    m_Modifications:
    - target: {fileID: -8679921383154817045, guid: 052e3b5b349377f43af939e5e22d0ec4, type: 3}
      propertyPath: m_RootOrder
      value: 0
      objectReference: {fileID: 0}
    - target: {fileID: -8679921383154817045, guid: 052e3b5b349377f43af939e5e22d0ec4, type: 3}
      propertyPath: m_LocalPosition.x
      value: 0
      objectReference: {fileID: 0}
    - target: {fileID: -8679921383154817045, guid: 052e3b5b349377f43af939e5e22d0ec4, type: 3}
      propertyPath: m_LocalPosition.y
      value: 0
      objectReference: {fileID: 0}
    - target: {fileID: -8679921383154817045, guid: 052e3b5b349377f43af939e5e22d0ec4, type: 3}
      propertyPath: m_LocalPosition.z
      value: 0
      objectReference: {fileID: 0}
    - target: {fileID: -8679921383154817045, guid: 052e3b5b349377f43af939e5e22d0ec4, type: 3}
      propertyPath: m_LocalRotation.w
      value: 1
      objectReference: {fileID: 0}
    - target: {fileID: -8679921383154817045, guid: 052e3b5b349377f43af939e5e22d0ec4, type: 3}
      propertyPath: m_LocalRotation.x
      value: 0
      objectReference: {fileID: 0}
    - target: {fileID: -8679921383154817045, guid: 052e3b5b349377f43af939e5e22d0ec4, type: 3}
      propertyPath: m_LocalRotation.y
      value: 0
      objectReference: {fileID: 0}
    - target: {fileID: -8679921383154817045, guid: 052e3b5b349377f43af939e5e22d0ec4, type: 3}
      propertyPath: m_LocalRotation.z
      value: 0
      objectReference: {fileID: 0}
    - target: {fileID: -8679921383154817045, guid: 052e3b5b349377f43af939e5e22d0ec4, type: 3}
      propertyPath: m_LocalEulerAnglesHint.x
      value: 0
      objectReference: {fileID: 0}
    - target: {fileID: -8679921383154817045, guid: 052e3b5b349377f43af939e5e22d0ec4, type: 3}
      propertyPath: m_LocalEulerAnglesHint.y
      value: 0
      objectReference: {fileID: 0}
    - target: {fileID: -8679921383154817045, guid: 052e3b5b349377f43af939e5e22d0ec4, type: 3}
      propertyPath: m_LocalEulerAnglesHint.z
      value: 0
      objectReference: {fileID: 0}
    - target: {fileID: -2577548232221058511, guid: 052e3b5b349377f43af939e5e22d0ec4, type: 3}
      propertyPath: m_LocalRotation.w
      value: 0
      objectReference: {fileID: 0}
    - target: {fileID: -2577548232221058511, guid: 052e3b5b349377f43af939e5e22d0ec4, type: 3}
      propertyPath: m_LocalRotation.x
      value: 0
      objectReference: {fileID: 0}
    - target: {fileID: -2577548232221058511, guid: 052e3b5b349377f43af939e5e22d0ec4, type: 3}
      propertyPath: m_LocalRotation.y
      value: 0.7071068
      objectReference: {fileID: 0}
    - target: {fileID: -2577548232221058511, guid: 052e3b5b349377f43af939e5e22d0ec4, type: 3}
      propertyPath: m_LocalRotation.z
      value: 0.7071068
      objectReference: {fileID: 0}
    - target: {fileID: -2577548232221058511, guid: 052e3b5b349377f43af939e5e22d0ec4, type: 3}
      propertyPath: m_LocalEulerAnglesHint.x
      value: -90
      objectReference: {fileID: 0}
    - target: {fileID: -2577548232221058511, guid: 052e3b5b349377f43af939e5e22d0ec4, type: 3}
      propertyPath: m_LocalEulerAnglesHint.y
      value: 180
      objectReference: {fileID: 0}
    - target: {fileID: -2484921068739079471, guid: 052e3b5b349377f43af939e5e22d0ec4, type: 3}
      propertyPath: m_LocalRotation.w
      value: 0
      objectReference: {fileID: 0}
    - target: {fileID: -2484921068739079471, guid: 052e3b5b349377f43af939e5e22d0ec4, type: 3}
      propertyPath: m_LocalRotation.x
      value: 0
      objectReference: {fileID: 0}
    - target: {fileID: -2484921068739079471, guid: 052e3b5b349377f43af939e5e22d0ec4, type: 3}
      propertyPath: m_LocalRotation.y
      value: 0.7071068
      objectReference: {fileID: 0}
    - target: {fileID: -2484921068739079471, guid: 052e3b5b349377f43af939e5e22d0ec4, type: 3}
      propertyPath: m_LocalRotation.z
      value: 0.7071068
      objectReference: {fileID: 0}
    - target: {fileID: -2484921068739079471, guid: 052e3b5b349377f43af939e5e22d0ec4, type: 3}
      propertyPath: m_LocalEulerAnglesHint.x
      value: -90
      objectReference: {fileID: 0}
    - target: {fileID: -2484921068739079471, guid: 052e3b5b349377f43af939e5e22d0ec4, type: 3}
      propertyPath: m_LocalEulerAnglesHint.y
      value: 180
      objectReference: {fileID: 0}
    - target: {fileID: 919132149155446097, guid: 052e3b5b349377f43af939e5e22d0ec4, type: 3}
      propertyPath: m_Name
      value: Hex City 2
      objectReference: {fileID: 0}
    - target: {fileID: 7071182760956848314, guid: 052e3b5b349377f43af939e5e22d0ec4, type: 3}
      propertyPath: m_Materials.Array.size
      value: 0
      objectReference: {fileID: 0}
    - target: {fileID: 7071182760956848314, guid: 052e3b5b349377f43af939e5e22d0ec4, type: 3}
      propertyPath: m_Materials.Array.data[0]
      value: 
      objectReference: {fileID: 2100000, guid: aff8723f106beb54d86fe277941bd08b, type: 2}
    - target: {fileID: 7202271454713460447, guid: 052e3b5b349377f43af939e5e22d0ec4, type: 3}
      propertyPath: m_Materials.Array.data[0]
      value: 
      objectReference: {fileID: 2100000, guid: 6ff21a8a97b2d0b4e8b4688a93106fd9, type: 2}
    m_RemovedComponents: []
  m_SourcePrefab: {fileID: 100100000, guid: 052e3b5b349377f43af939e5e22d0ec4, type: 3}
