%YAML 1.1
%TAG !u! tag:unity3d.com,2011:
--- !u!114 &11400000
MonoBehaviour:
  m_ObjectHideFlags: 0
  m_CorrespondingSourceObject: {fileID: 0}
  m_PrefabInstance: {fileID: 0}
  m_PrefabAsset: {fileID: 0}
  m_GameObject: {fileID: 0}
  m_Enabled: 1
  m_EditorHideFlags: 0
  m_Script: {fileID: 11500000, guid: 3ea8e27e8c73266459bfbd2470a9f761, type: 3}
  m_Name: ml_Empty
  m_EditorClassIdentifier: 
  id: -2
  prefab: {fileID: 7600731385269097962, guid: d89c4027b4bc992418e76599c454ea41, type: 3}
  weight: 1
  uniqueRotations: 4
  minElevation: 0
  maxElevation: 0
  sideBorders:
  - borderData: {fileID: 0}
    relativeElevation: 0
  - borderData: {fileID: 0}
    relativeElevation: 0
  - borderData: {fileID: 0}
    relativeElevation: 0
  - borderData: {fileID: 0}
    relativeElevation: 0
  verticalBorder:
    vertBorderData: {fileID: 11400000, guid: cf83f521d490b2d4fba36a2f07b75a32, type: 2}
    offset: {x: 0, y: 0, z: 0}
  group:
    id: 0
    layerID: 0
    groupName: 
    tiles:
      tiles: []
  currentRotation: 0
  currentElevation: 0
