%YAML 1.1
%TAG !u! tag:unity3d.com,2011:
--- !u!114 &11400000
MonoBehaviour:
  m_ObjectHideFlags: 0
  m_CorrespondingSourceObject: {fileID: 0}
  m_PrefabInstance: {fileID: 0}
  m_PrefabAsset: {fileID: 0}
  m_GameObject: {fileID: 0}
  m_Enabled: 1
  m_EditorHideFlags: 0
  m_Script: {fileID: 11500000, guid: 3ea8e27e8c73266459bfbd2470a9f761, type: 3}
  m_Name: _DebugTile
  m_EditorClassIdentifier: 
  id: -2
  prefab: {fileID: 4030724202524520341, guid: 2140aaedc8e146a45b2390b5632b0685, type: 3}
  weight: 0
  uniqueRotations: 0
  minElevation: 0
  maxElevation: 0
  sideBorders: []
  verticalBorder:
    vertBorderData: {fileID: 0}
    offset: {x: 0, y: 0, z: 0}
  group:
    id: 0
    layerID: 0
    groupName: 
    tiles:
      tiles: []
  currentRotation: 0
  currentElevation: 0
