%YAML 1.1
%TAG !u! tag:unity3d.com,2011:
--- !u!114 &11400000
MonoBehaviour:
  m_ObjectHideFlags: 0
  m_CorrespondingSourceObject: {fileID: 0}
  m_PrefabInstance: {fileID: 0}
  m_PrefabAsset: {fileID: 0}
  m_GameObject: {fileID: 0}
  m_Enabled: 1
  m_EditorHideFlags: 0
  m_Script: {fileID: 11500000, guid: 3ea8e27e8c73266459bfbd2470a9f761, type: 3}
  m_Name: mazeChestA
  m_EditorClassIdentifier: 
  id: -2
  prefab: {fileID: 2148519080687506396, guid: 4a21a7decca228e4db50bed4e8649509, type: 3}
  weight: 0.12
  uniqueRotations: 4
  minElevation: 0
  maxElevation: 0
  currentElevation: 0
  sideBorders:
  - borderData: {fileID: 0}
    relativeElevation: 0
  - borderData: {fileID: 0}
    relativeElevation: 0
  - borderData: {fileID: 0}
    relativeElevation: 0
  - borderData: {fileID: 0}
    relativeElevation: 0
  verticalBorder:
    vertBorderData: {fileID: 11400000, guid: 15e627ef7f5a3ba4aa667f79d02d42c0, type: 2}
    offset: {x: 1, y: 0.23, z: -1}
  group:
    id: 0
    layerID: 0
    groupName: Default name #1070
    tiles:
      tiles: []
  currentRotation: 0
