%YAML 1.1
%TAG !u! tag:unity3d.com,2011:
--- !u!114 &11400000
MonoBehaviour:
  m_ObjectHideFlags: 0
  m_CorrespondingSourceObject: {fileID: 0}
  m_PrefabInstance: {fileID: 0}
  m_PrefabAsset: {fileID: 0}
  m_GameObject: {fileID: 0}
  m_Enabled: 1
  m_EditorHideFlags: 0
  m_Script: {fileID: 11500000, guid: 3ea8e27e8c73266459bfbd2470a9f761, type: 3}
  m_Name: mlLake
  m_EditorClassIdentifier: 
  id: -2
  prefab: {fileID: 1265174552070739859, guid: 650fe69e9d8918a4482832a21c4cb922, type: 3}
  weight: 1
  uniqueRotations: 1
  minElevation: 0
  maxElevation: 0
  sideBorders:
  - borderData: {fileID: 11400000, guid: 0308c1a01bb5ce04084888969f60c198, type: 2}
    relativeElevation: 0
  - borderData: {fileID: 11400000, guid: 0308c1a01bb5ce04084888969f60c198, type: 2}
    relativeElevation: 0
  - borderData: {fileID: 11400000, guid: 0308c1a01bb5ce04084888969f60c198, type: 2}
    relativeElevation: 0
  - borderData: {fileID: 11400000, guid: 0308c1a01bb5ce04084888969f60c198, type: 2}
    relativeElevation: 0
  verticalBorder:
    vertBorderData: {fileID: 11400000, guid: cf83f521d490b2d4fba36a2f07b75a32, type: 2}
    offset: {x: 0, y: 0.2, z: 0}
  group:
    id: 0
    layerID: 0
    groupName: 
    tiles:
      tiles: []
  currentRotation: 0
  currentElevation: 0
