%YAML 1.1
%TAG !u! tag:unity3d.com,2011:
--- !u!114 &11400000
MonoBehaviour:
  m_ObjectHideFlags: 0
  m_CorrespondingSourceObject: {fileID: 0}
  m_PrefabInstance: {fileID: 0}
  m_PrefabAsset: {fileID: 0}
  m_GameObject: {fileID: 0}
  m_Enabled: 1
  m_EditorHideFlags: 0
  m_Script: {fileID: 11500000, guid: 3ea8e27e8c73266459bfbd2470a9f761, type: 3}
  m_Name: CityStretch
  m_EditorClassIdentifier: 
  id: -2
  prefab: {fileID: 1840330019397157326, guid: 16ea8924ed3bfa44e8bfb1db585de42c, type: 3}
  weight: 1
  uniqueRotations: 2
  minElevation: 0
  maxElevation: 0
  sideBorders:
  - borderData: {fileID: 11400000, guid: 4aa3e7d9cb23c0f41b5fc4275a7d5bbb, type: 2}
    relativeElevation: 0
  - borderData: {fileID: 11400000, guid: ade028de4586f104eae698318ec11ef1, type: 2}
    relativeElevation: 0
  - borderData: {fileID: 11400000, guid: 4aa3e7d9cb23c0f41b5fc4275a7d5bbb, type: 2}
    relativeElevation: 0
  - borderData: {fileID: 11400000, guid: ade028de4586f104eae698318ec11ef1, type: 2}
    relativeElevation: 0
  verticalBorder:
    vertBorderData: {fileID: 0}
    offset: {x: 0, y: 0, z: 0}
  group:
    id: 0
    layerID: 0
    groupName: 
    tiles:
      tiles: []
  currentRotation: 0
  currentElevation: 0
