%YAML 1.1
%TAG !u! tag:unity3d.com,2011:
--- !u!114 &11400000
MonoBehaviour:
  m_ObjectHideFlags: 0
  m_CorrespondingSourceObject: {fileID: 0}
  m_PrefabInstance: {fileID: 0}
  m_PrefabAsset: {fileID: 0}
  m_GameObject: {fileID: 0}
  m_Enabled: 1
  m_EditorHideFlags: 0
  m_Script: {fileID: 11500000, guid: 3ea8e27e8c73266459bfbd2470a9f761, type: 3}
  m_Name: th_flat
  m_EditorClassIdentifier: 
  id: -2
  prefab: {fileID: 8382735440423847799, guid: 055d9d7ca9902be47b33b3428dd8146b, type: 3}
  weight: 1
  uniqueRotations: 1
  minElevation: 0
  maxElevation: 7
  currentElevation: 0
  sideBorders:
  - borderData: {fileID: 11400000, guid: a238b356ba6cded4dbaf8e446148db7d, type: 2}
    relativeElevation: 0
  - borderData: {fileID: 11400000, guid: a238b356ba6cded4dbaf8e446148db7d, type: 2}
    relativeElevation: 0
  - borderData: {fileID: 11400000, guid: a238b356ba6cded4dbaf8e446148db7d, type: 2}
    relativeElevation: 0
  - borderData: {fileID: 11400000, guid: a238b356ba6cded4dbaf8e446148db7d, type: 2}
    relativeElevation: 0
  verticalBorder:
    vertBorderData: {fileID: 0}
    offset: {x: 0, y: 0, z: 0}
  group:
    id: 0
    layerID: 0
    groupName: Default name #88
    tiles:
      tiles: []
  currentRotation: 0
