%YAML 1.1
%TAG !u! tag:unity3d.com,2011:
--- !u!114 &11400000
MonoBehaviour:
  m_ObjectHideFlags: 0
  m_CorrespondingSourceObject: {fileID: 0}
  m_PrefabInstance: {fileID: 0}
  m_PrefabAsset: {fileID: 0}
  m_GameObject: {fileID: 0}
  m_Enabled: 1
  m_EditorHideFlags: 0
  m_Script: {fileID: 11500000, guid: 3ea8e27e8c73266459bfbd2470a9f761, type: 3}
  m_Name: th_slopedUpTo-Z
  m_EditorClassIdentifier: 
  id: -2
  prefab: {fileID: 8382735440423847799, guid: b25c501b0544e8944aa32e986b8ef046, type: 3}
  weight: 0.01
  uniqueRotations: 4
  minElevation: 0
  maxElevation: 7
  currentElevation: 0
  sideBorders:
  - borderData: {fileID: 11400000, guid: a238b356ba6cded4dbaf8e446148db7d, type: 2}
    relativeElevation: 1
  - borderData: {fileID: 11400000, guid: 373535422788f90428d9bb3cf4326bc3, type: 2}
    relativeElevation: 0
  - borderData: {fileID: 11400000, guid: a238b356ba6cded4dbaf8e446148db7d, type: 2}
    relativeElevation: -1
  - borderData: {fileID: 11400000, guid: f43e926d56545b54d8364e77178d8bab, type: 2}
    relativeElevation: 0
  verticalBorder:
    vertBorderData: {fileID: 0}
    offset: {x: 0, y: 0, z: 0}
  group:
    id: 0
    layerID: 0
    groupName: Default name #89
    tiles:
      tiles: []
  currentRotation: 0
