%YAML 1.1
%TAG !u! tag:unity3d.com,2011:
--- !u!114 &11400000
MonoBehaviour:
  m_ObjectHideFlags: 0
  m_CorrespondingSourceObject: {fileID: 0}
  m_PrefabInstance: {fileID: 0}
  m_PrefabAsset: {fileID: 0}
  m_GameObject: {fileID: 0}
  m_Enabled: 1
  m_EditorHideFlags: 0
  m_Script: {fileID: 11500000, guid: 1409982f98a74314c8673b1ceadaade8, type: 3}
  m_Name: thb_flat
  m_EditorClassIdentifier: 
  borderName: flat
  borders:
  - border: {fileID: 11400000}
    weight: 1
  canExit: 1
  canEnter: 1
